<svg width="20" height="21" viewBox="0 0 20 21" fill="none" xmlns="http://www.w3.org/2000/svg">
<rect width="20" height="21" fill="black" fill-opacity="0"/>
<rect width="0.805476" height="0.820312" fill="black" fill-opacity="0" transform="translate(17.0736 13.4572)"/>
<rect width="0.805476" height="0.820312" fill="black" fill-opacity="0" transform="translate(17.0736 13.4572)"/>
<path d="M17.4764 14.2775C17.6988 14.2775 17.8791 14.0938 17.8791 13.8673C17.8791 13.6408 17.6988 13.4572 17.4764 13.4572C17.254 13.4572 17.0736 13.6408 17.0736 13.8673C17.0736 14.0938 17.254 14.2775 17.4764 14.2775Z" fill="#ED222B"/>
<rect width="0.805476" height="0.820312" fill="black" fill-opacity="0" transform="translate(1.74243 13.4572)"/>
<rect width="0.805476" height="0.820312" fill="black" fill-opacity="0" transform="translate(1.74243 13.4572)"/>
<path d="M2.14517 14.2775C2.3676 14.2775 2.54791 14.0938 2.54791 13.8673C2.54791 13.6408 2.3676 13.4572 2.14517 13.4572C1.92274 13.4572 1.74243 13.6408 1.74243 13.8673C1.74243 14.0938 1.92274 14.2775 2.14517 14.2775Z" fill="#ED222B"/>
<rect width="20" height="21" fill="black" fill-opacity="0"/>
<rect width="20" height="21" fill="black" fill-opacity="0"/>
<path d="M19.5971 20.1795H16.1386L16.1174 10.099C16.117 9.87275 15.9367 9.6897 15.7147 9.6897C15.7144 9.6897 15.7141 9.6897 15.7138 9.6897C15.4913 9.69019 15.3114 9.87422 15.3119 10.1008L15.333 20.1795H14.1631L14.1527 15.6945C14.1522 15.4683 13.972 15.2853 13.75 15.2853C13.7496 15.2853 13.7493 15.2853 13.749 15.2853C13.5265 15.2858 13.3466 15.4699 13.3471 15.6965L13.3575 20.1795H12.3794V14.7507C13.5196 14.648 14.416 13.6938 14.416 12.5352V8.5598C14.416 7.92766 14.2843 7.30804 14.0324 6.73579C14.8279 6.78989 15.5683 7.11949 16.1379 7.67968C16.7613 8.2927 17.1056 9.10785 17.1074 9.97537L17.1147 12.3098C17.1155 12.5359 17.2957 12.7187 17.5175 12.7187C17.518 12.7187 17.5184 12.7187 17.5189 12.7187C17.7413 12.718 17.9211 12.5338 17.9204 12.3072L17.913 9.9732C17.9107 8.88218 17.4791 7.85806 16.6975 7.08951C16.2512 6.65052 15.721 6.32539 15.1431 6.12814C15.5524 5.7314 15.8078 5.17154 15.8065 4.55204C15.804 3.35676 14.8484 2.38612 13.6753 2.38612C13.6738 2.38612 13.6722 2.38612 13.6707 2.38612C13.3289 2.3869 12.9891 2.47213 12.688 2.63263C12.4909 2.73771 12.4147 2.98561 12.5179 3.18634C12.6211 3.38707 12.8646 3.46463 13.0616 3.35955C13.2511 3.25853 13.4566 3.20705 13.6725 3.20656C14.4046 3.20619 14.9994 3.80933 15.001 4.55376C15.0025 5.29819 14.4091 5.90514 13.6781 5.90674C13.6608 5.90678 13.6438 5.9083 13.6271 5.91052C13.6057 5.91142 13.5842 5.9122 13.5627 5.91343C12.9808 5.1023 12.1638 4.51389 11.2333 4.2153C11.7273 3.77389 12.0401 3.12695 12.0401 2.40659C12.0399 1.07957 10.9799 0 9.67694 0C8.37393 0 7.31388 1.07957 7.31388 2.40659C7.31388 3.16185 7.65758 3.83664 8.19374 4.27818C7.33962 4.59211 6.59109 5.15447 6.04747 5.91109C5.98368 5.90818 5.91996 5.90646 5.85657 5.90646C5.82645 5.90646 5.7964 5.90695 5.7664 5.9076C5.75903 5.90719 5.75178 5.90646 5.74433 5.90646C5.01336 5.90646 4.41868 5.30082 4.41868 4.55638C4.41868 3.81195 5.01336 3.20631 5.74433 3.20631C5.96527 3.20631 6.18384 3.26267 6.37635 3.36927C6.57179 3.47743 6.81634 3.40385 6.92266 3.2048C7.0289 3.00575 6.95661 2.75666 6.76116 2.64842C6.45089 2.47661 6.09926 2.3858 5.74429 2.3858C4.5691 2.3858 3.613 3.35951 3.613 4.55634C3.613 5.20808 3.89693 5.79321 4.34494 6.19143C2.82206 6.78948 1.74236 8.26321 1.74236 9.9821V12.3085C1.74236 12.5351 1.92271 12.7187 2.14518 12.7187C2.36766 12.7187 2.548 12.5351 2.548 12.3085V9.9821C2.548 8.28077 3.88171 6.88107 5.57433 6.7396C5.32355 7.31075 5.19238 7.92898 5.19238 8.5598V12.5352C5.19238 13.7168 6.1246 14.6858 7.29688 14.7558V20.1795H6.1995V15.6954C6.1995 15.4688 6.01916 15.2851 5.79669 15.2851C5.57421 15.2851 5.39387 15.4688 5.39387 15.6954V20.1795H4.4037V10.104C4.4037 9.87746 4.22335 9.6938 4.00088 9.6938C3.77841 9.6938 3.59806 9.87746 3.59806 10.104V20.1795H0.402818C0.180346 20.1795 0 20.3632 0 20.5898C0 20.8163 0.180306 21 0.402818 21H19.5972C19.8197 21 20 20.8163 20 20.5898C19.9999 20.3632 19.8196 20.1795 19.5971 20.1795ZM8.11948 2.40659C8.11948 1.53202 8.81815 0.820477 9.6769 0.820477C10.5357 0.820477 11.2343 1.53202 11.2343 2.40659C11.2343 3.28117 10.5356 3.99271 9.6769 3.99271C8.81819 3.99271 8.11948 3.28117 8.11948 2.40659ZM11.9766 8.28786C11.7541 8.28786 11.5738 8.47153 11.5738 8.6981V20.1795H10.1391V14.4723C10.1391 14.2458 9.95878 14.0621 9.73631 14.0621C9.51384 14.0621 9.33349 14.2458 9.33349 14.4723V20.1796H8.10252V8.6981C8.10252 8.47153 7.92218 8.28786 7.6997 8.28786C7.47723 8.28786 7.29688 8.47153 7.29688 8.6981V13.9334C6.56926 13.8661 5.99797 13.2649 5.99797 12.5352V8.55984C5.99797 7.84986 6.20071 7.15879 6.58428 6.56139C7.28714 5.46673 8.49084 4.81318 9.80417 4.81318C11.1197 4.81318 12.3245 5.46841 13.0269 6.56595C13.4086 7.16231 13.6104 7.85179 13.6104 8.55984V12.5352C13.6104 13.242 13.0743 13.8283 12.3794 13.9255V8.6981C12.3794 8.47153 12.199 8.28786 11.9766 8.28786Z" fill="#ED222B"/>
</svg>
