<svg width="20" height="19" viewBox="0 0 20 19" fill="none" xmlns="http://www.w3.org/2000/svg">
<rect width="20" height="19" fill="black" fill-opacity="0" transform="translate(20) scale(-1 1)"/>
<path d="M10.0328 10.6629C7.07715 10.6629 4.6798 8.27155 4.6798 5.32329C4.6798 2.37504 7.07718 0 10.0328 0C12.9885 0 15.3859 2.39139 15.3859 5.32329C15.3859 8.25519 12.9885 10.6629 10.0328 10.6629ZM10.0328 1.39225C7.86536 1.39225 6.09193 3.1612 6.09193 5.32329C6.09193 7.48538 7.86536 9.2543 10.0328 9.2543C12.2003 9.2543 13.9737 7.48535 13.9737 5.32326C13.9737 3.16117 12.2003 1.39225 10.0328 1.39225Z" fill="#ED222B"/>
<path d="M19.2939 19H0.706068C0.311981 19 0 18.6888 0 18.2957C0 14.6104 3.00492 11.5966 6.71594 11.5966H13.2841C16.9786 11.5966 20 14.594 20 18.2957C20 18.6888 19.688 19 19.2939 19ZM13.2841 13.0052H6.71594C4.023 13.0052 1.80626 15.0035 1.4614 17.5914H18.5386C18.1938 15.0199 15.977 13.0052 13.2841 13.0052Z" fill="#ED222B"/>
</svg>
